{
  "resource": "V1::Questions",
  "resource_explanation": null,
  "http_method": "GET",
  "route": "/v1/questions",
  "description": "index with a valid api_key",
  "explanation": null,
  "parameters": [

  ],
  "response_fields": [

  ],
  "requests": [
    {
      "request_method": "GET",
      "request_path": "/v1/questions",
      "request_body": null,
      "request_headers": {
        "Accept": "application/json",
        "Content-Type": "application/json",
        "Authorization": "Token token=jM1T9Qpjeg51PQfkMEdzdwtt",
        "Host": "example.org",
        "Cookie": ""
      },
      "request_query_parameters": {
      },
      "request_content_type": "application/json",
      "response_status": 200,
      "response_status_text": "OK",
      "response_body": "{\n  \"data\": [\n    {\n      \"id\": \"233\",\n      \"type\": \"question\",\n      \"attributes\": {\n        \"id\": 233,\n        \"name\": \"Sit ut aut voluptas?\",\n        \"asker_name\": \"Dallas Ernesto Mohr DDS\"\n      },\n      \"relationships\": {\n        \"answers\": {\n          \"data\": [\n            {\n              \"id\": \"233\",\n              \"type\": \"answer\"\n            }\n          ]\n        }\n      }\n    },\n    {\n      \"id\": \"234\",\n      \"type\": \"question\",\n      \"attributes\": {\n        \"id\": 234,\n        \"name\": \"Consectetur quae quo voluptas?\",\n        \"asker_name\": \"Normand Earnestine Nitzsche V\"\n      },\n      \"relationships\": {\n        \"answers\": {\n          \"data\": [\n            {\n              \"id\": \"234\",\n              \"type\": \"answer\"\n            }\n          ]\n        }\n      }\n    },\n    {\n      \"id\": \"235\",\n      \"type\": \"question\",\n      \"attributes\": {\n        \"id\": 235,\n        \"name\": \"Dolores enim debitis nihil?\",\n        \"asker_name\": \"Lashawna Annalisa Nikolaus DDS\"\n      },\n      \"relationships\": {\n        \"answers\": {\n          \"data\": [\n            {\n              \"id\": \"235\",\n              \"type\": \"answer\"\n            }\n          ]\n        }\n      }\n    },\n    {\n      \"id\": \"236\",\n      \"type\": \"question\",\n      \"attributes\": {\n        \"id\": 236,\n        \"name\": \"Laudantium et reprehenderit aut?\",\n        \"asker_name\": \"Valencia Deann Veum\"\n      },\n      \"relationships\": {\n        \"answers\": {\n          \"data\": [\n            {\n              \"id\": \"236\",\n              \"type\": \"answer\"\n            }\n          ]\n        }\n      }\n    },\n    {\n      \"id\": \"237\",\n      \"type\": \"question\",\n      \"attributes\": {\n        \"id\": 237,\n        \"name\": \"Est praesentium adipisci pariatur?\",\n        \"asker_name\": \"Rod Dominique Hills\"\n      },\n      \"relationships\": {\n        \"answers\": {\n          \"data\": [\n            {\n              \"id\": \"237\",\n              \"type\": \"answer\"\n            }\n          ]\n        }\n      }\n    },\n    {\n      \"id\": \"238\",\n      \"type\": \"question\",\n      \"attributes\": {\n        \"id\": 238,\n        \"name\": \"Fugiat dolores ipsa et?\",\n        \"asker_name\": \"Dulcie Rosenda Huel Jr.\"\n      },\n      \"relationships\": {\n        \"answers\": {\n          \"data\": [\n            {\n              \"id\": \"238\",\n              \"type\": \"answer\"\n            }\n          ]\n        }\n      }\n    },\n    {\n      \"id\": \"239\",\n      \"type\": \"question\",\n      \"attributes\": {\n        \"id\": 239,\n        \"name\": \"Praesentium voluptas rerum eos?\",\n        \"asker_name\": \"Vannessa Clora Dietrich\"\n      },\n      \"relationships\": {\n        \"answers\": {\n          \"data\": [\n            {\n              \"id\": \"239\",\n              \"type\": \"answer\"\n            }\n          ]\n        }\n      }\n    },\n    {\n      \"id\": \"240\",\n      \"type\": \"question\",\n      \"attributes\": {\n        \"id\": 240,\n        \"name\": \"Voluptas natus veritatis saepe?\",\n        \"asker_name\": \"Ms. Bradly Bradford McCullough\"\n      },\n      \"relationships\": {\n        \"answers\": {\n          \"data\": [\n            {\n              \"id\": \"240\",\n              \"type\": \"answer\"\n            }\n          ]\n        }\n      }\n    },\n    {\n      \"id\": \"241\",\n      \"type\": \"question\",\n      \"attributes\": {\n        \"id\": 241,\n        \"name\": \"Eum sit expedita consequatur?\",\n        \"asker_name\": \"Elizbeth Venice Goodwin\"\n      },\n      \"relationships\": {\n        \"answers\": {\n          \"data\": [\n            {\n              \"id\": \"241\",\n              \"type\": \"answer\"\n            }\n          ]\n        }\n      }\n    },\n    {\n      \"id\": \"242\",\n      \"type\": \"question\",\n      \"attributes\": {\n        \"id\": 242,\n        \"name\": \"Nisi error quisquam repellat?\",\n        \"asker_name\": \"Karey Clemmie Wiegand\"\n      },\n      \"relationships\": {\n        \"answers\": {\n          \"data\": [\n            {\n              \"id\": \"242\",\n              \"type\": \"answer\"\n            }\n          ]\n        }\n      }\n    },\n    {\n      \"id\": \"243\",\n      \"type\": \"question\",\n      \"attributes\": {\n        \"id\": 243,\n        \"name\": \"Reprehenderit et repudiandae et?\",\n        \"asker_name\": \"Art Keturah Wehner\"\n      },\n      \"relationships\": {\n        \"answers\": {\n          \"data\": [\n            {\n              \"id\": \"243\",\n              \"type\": \"answer\"\n            }\n          ]\n        }\n      }\n    },\n    {\n      \"id\": \"244\",\n      \"type\": \"question\",\n      \"attributes\": {\n        \"id\": 244,\n        \"name\": \"At velit sit odit?\",\n        \"asker_name\": \"Miss Verdell Harriett Conroy\"\n      },\n      \"relationships\": {\n        \"answers\": {\n          \"data\": [\n            {\n              \"id\": \"244\",\n              \"type\": \"answer\"\n            }\n          ]\n        }\n      }\n    },\n    {\n      \"id\": \"245\",\n      \"type\": \"question\",\n      \"attributes\": {\n        \"id\": 245,\n        \"name\": \"Soluta sed est ut?\",\n        \"asker_name\": \"Jeremy Davis Homenick MD\"\n      },\n      \"relationships\": {\n        \"answers\": {\n          \"data\": [\n            {\n              \"id\": \"245\",\n              \"type\": \"answer\"\n            }\n          ]\n        }\n      }\n    },\n    {\n      \"id\": \"246\",\n      \"type\": \"question\",\n      \"attributes\": {\n        \"id\": 246,\n        \"name\": \"Dolore nesciunt ab odit?\",\n        \"asker_name\": \"Aida Leo Nikolaus PhD\"\n      },\n      \"relationships\": {\n        \"answers\": {\n          \"data\": [\n            {\n              \"id\": \"246\",\n              \"type\": \"answer\"\n            }\n          ]\n        }\n      }\n    },\n    {\n      \"id\": \"247\",\n      \"type\": \"question\",\n      \"attributes\": {\n        \"id\": 247,\n        \"name\": \"Veniam velit est nulla?\",\n        \"asker_name\": \"Marvella Michele Kub III\"\n      },\n      \"relationships\": {\n        \"answers\": {\n          \"data\": [\n            {\n              \"id\": \"247\",\n              \"type\": \"answer\"\n            }\n          ]\n        }\n      }\n    },\n    {\n      \"id\": \"248\",\n      \"type\": \"question\",\n      \"attributes\": {\n        \"id\": 248,\n        \"name\": \"Vel eos quia recusandae?\",\n        \"asker_name\": \"Ms. Rodrigo Tomas Krajcik\"\n      },\n      \"relationships\": {\n        \"answers\": {\n          \"data\": [\n            {\n              \"id\": \"248\",\n              \"type\": \"answer\"\n            }\n          ]\n        }\n      }\n    },\n    {\n      \"id\": \"249\",\n      \"type\": \"question\",\n      \"attributes\": {\n        \"id\": 249,\n        \"name\": \"Corrupti ipsa est nisi?\",\n        \"asker_name\": \"Cathryn Rolf Dach\"\n      },\n      \"relationships\": {\n        \"answers\": {\n          \"data\": [\n            {\n              \"id\": \"249\",\n              \"type\": \"answer\"\n            }\n          ]\n        }\n      }\n    },\n    {\n      \"id\": \"250\",\n      \"type\": \"question\",\n      \"attributes\": {\n        \"id\": 250,\n        \"name\": \"Est est nostrum magni?\",\n        \"asker_name\": \"Tomeka Aileen Lueilwitz IV\"\n      },\n      \"relationships\": {\n        \"answers\": {\n          \"data\": [\n            {\n              \"id\": \"250\",\n              \"type\": \"answer\"\n            }\n          ]\n        }\n      }\n    },\n    {\n      \"id\": \"251\",\n      \"type\": \"question\",\n      \"attributes\": {\n        \"id\": 251,\n        \"name\": \"Accusantium est in quo?\",\n        \"asker_name\": \"Mr. Arturo Mimi Runolfsson\"\n      },\n      \"relationships\": {\n        \"answers\": {\n          \"data\": [\n            {\n              \"id\": \"251\",\n              \"type\": \"answer\"\n            }\n          ]\n        }\n      }\n    },\n    {\n      \"id\": \"252\",\n      \"type\": \"question\",\n      \"attributes\": {\n        \"id\": 252,\n        \"name\": \"Dolor cumque ut temporibus?\",\n        \"asker_name\": \"Bryan Romeo O'Hara IV\"\n      },\n      \"relationships\": {\n        \"answers\": {\n          \"data\": [\n            {\n              \"id\": \"252\",\n              \"type\": \"answer\"\n            }\n          ]\n        }\n      }\n    },\n    {\n      \"id\": \"253\",\n      \"type\": \"question\",\n      \"attributes\": {\n        \"id\": 253,\n        \"name\": \"Excepturi eos praesentium saepe?\",\n        \"asker_name\": \"Karl Eboni O'Keefe\"\n      },\n      \"relationships\": {\n        \"answers\": {\n          \"data\": [\n            {\n              \"id\": \"253\",\n              \"type\": \"answer\"\n            }\n          ]\n        }\n      }\n    },\n    {\n      \"id\": \"254\",\n      \"type\": \"question\",\n      \"attributes\": {\n        \"id\": 254,\n        \"name\": \"Earum ratione ipsum in?\",\n        \"asker_name\": \"Lecia Cyndy Mitchell\"\n      },\n      \"relationships\": {\n        \"answers\": {\n          \"data\": [\n            {\n              \"id\": \"254\",\n              \"type\": \"answer\"\n            }\n          ]\n        }\n      }\n    },\n    {\n      \"id\": \"255\",\n      \"type\": \"question\",\n      \"attributes\": {\n        \"id\": 255,\n        \"name\": \"Veniam quod minima delectus?\",\n        \"asker_name\": \"Reita Bettina Baumbach\"\n      },\n      \"relationships\": {\n        \"answers\": {\n          \"data\": [\n            {\n              \"id\": \"255\",\n              \"type\": \"answer\"\n            }\n          ]\n        }\n      }\n    },\n    {\n      \"id\": \"256\",\n      \"type\": \"question\",\n      \"attributes\": {\n        \"id\": 256,\n        \"name\": \"Dolor autem consequatur numquam?\",\n        \"asker_name\": \"Elton Doria O'Hara\"\n      },\n      \"relationships\": {\n        \"answers\": {\n          \"data\": [\n            {\n              \"id\": \"256\",\n              \"type\": \"answer\"\n            }\n          ]\n        }\n      }\n    },\n    {\n      \"id\": \"257\",\n      \"type\": \"question\",\n      \"attributes\": {\n        \"id\": 257,\n        \"name\": \"Vero quia vitae amet?\",\n        \"asker_name\": \"Hildegarde Lovella Little III\"\n      },\n      \"relationships\": {\n        \"answers\": {\n          \"data\": [\n            {\n              \"id\": \"257\",\n              \"type\": \"answer\"\n            }\n          ]\n        }\n      }\n    },\n    {\n      \"id\": \"258\",\n      \"type\": \"question\",\n      \"attributes\": {\n        \"id\": 258,\n        \"name\": \"Veniam in magnam ratione?\",\n        \"asker_name\": \"Amos Toya Pacocha\"\n      },\n      \"relationships\": {\n        \"answers\": {\n          \"data\": [\n            {\n              \"id\": \"258\",\n              \"type\": \"answer\"\n            }\n          ]\n        }\n      }\n    },\n    {\n      \"id\": \"259\",\n      \"type\": \"question\",\n      \"attributes\": {\n        \"id\": 259,\n        \"name\": \"Nihil qui qui minima?\",\n        \"asker_name\": \"Wilburn Ian Mayer DDS\"\n      },\n      \"relationships\": {\n        \"answers\": {\n          \"data\": [\n            {\n              \"id\": \"259\",\n              \"type\": \"answer\"\n            }\n          ]\n        }\n      }\n    },\n    {\n      \"id\": \"260\",\n      \"type\": \"question\",\n      \"attributes\": {\n        \"id\": 260,\n        \"name\": \"Similique molestiae rerum tempora?\",\n        \"asker_name\": \"Micheal Fay Wuckert III\"\n      },\n      \"relationships\": {\n        \"answers\": {\n          \"data\": [\n            {\n              \"id\": \"260\",\n              \"type\": \"answer\"\n            }\n          ]\n        }\n      }\n    },\n    {\n      \"id\": \"261\",\n      \"type\": \"question\",\n      \"attributes\": {\n        \"id\": 261,\n        \"name\": \"Aliquid eos sunt eius?\",\n        \"asker_name\": \"Ileana Kacy Strosin III\"\n      },\n      \"relationships\": {\n        \"answers\": {\n          \"data\": [\n            {\n              \"id\": \"261\",\n              \"type\": \"answer\"\n            }\n          ]\n        }\n      }\n    },\n    {\n      \"id\": \"262\",\n      \"type\": \"question\",\n      \"attributes\": {\n        \"id\": 262,\n        \"name\": \"Veniam qui nihil necessitatibus?\",\n        \"asker_name\": \"Nelida Hugh Macejkovic DVM\"\n      },\n      \"relationships\": {\n        \"answers\": {\n          \"data\": [\n            {\n              \"id\": \"262\",\n              \"type\": \"answer\"\n            }\n          ]\n        }\n      }\n    }\n  ],\n  \"included\": [\n    {\n      \"id\": \"233\",\n      \"type\": \"answer\",\n      \"attributes\": {\n        \"name\": \"Et ratione earum. Possimus impedit corrupti. Atque ullam sit.\",\n        \"provider_name\": \"Gonzalo Louetta Ziemann\"\n      }\n    },\n    {\n      \"id\": \"234\",\n      \"type\": \"answer\",\n      \"attributes\": {\n        \"name\": \"Qui et quia. Consectetur alias accusamus. Maiores enim molestiae.\",\n        \"provider_name\": \"Deneen Song Leannon\"\n      }\n    },\n    {\n      \"id\": \"235\",\n      \"type\": \"answer\",\n      \"attributes\": {\n        \"name\": \"Velit repudiandae eligendi. Quaerat quia et. Et aspernatur laborum.\",\n        \"provider_name\": \"Susana Caren Littel\"\n      }\n    },\n    {\n      \"id\": \"236\",\n      \"type\": \"answer\",\n      \"attributes\": {\n        \"name\": \"Eligendi adipisci vel. Quia rem pariatur. Beatae aliquid doloribus.\",\n        \"provider_name\": \"Jan Shanelle Reichel DVM\"\n      }\n    },\n    {\n      \"id\": \"237\",\n      \"type\": \"answer\",\n      \"attributes\": {\n        \"name\": \"Sit aut et. Et aut eligendi. Placeat at labore.\",\n        \"provider_name\": \"Neal Stacie Bailey V\"\n      }\n    },\n    {\n      \"id\": \"238\",\n      \"type\": \"answer\",\n      \"attributes\": {\n        \"name\": \"Animi inventore architecto. Optio modi non. Fugit quaerat sit.\",\n        \"provider_name\": \"Michelle Sarai Hartmann Sr.\"\n      }\n    },\n    {\n      \"id\": \"239\",\n      \"type\": \"answer\",\n      \"attributes\": {\n        \"name\": \"Facilis qui tempore. Corrupti sunt aut. Beatae tempore quae.\",\n        \"provider_name\": \"Heidy Max Emard\"\n      }\n    },\n    {\n      \"id\": \"240\",\n      \"type\": \"answer\",\n      \"attributes\": {\n        \"name\": \"Neque cupiditate quis. Dignissimos quam aut. Aut eos voluptas.\",\n        \"provider_name\": \"Orville Coralie Mraz\"\n      }\n    },\n    {\n      \"id\": \"241\",\n      \"type\": \"answer\",\n      \"attributes\": {\n        \"name\": \"Quos dolorem assumenda. Voluptates cupiditate dolores. Omnis ad voluptas.\",\n        \"provider_name\": \"Barbar Alejandro Hettinger DDS\"\n      }\n    },\n    {\n      \"id\": \"242\",\n      \"type\": \"answer\",\n      \"attributes\": {\n        \"name\": \"Quos harum tempora. Qui consequuntur consequatur. Quia magni error.\",\n        \"provider_name\": \"Garry Lenora Fay\"\n      }\n    },\n    {\n      \"id\": \"243\",\n      \"type\": \"answer\",\n      \"attributes\": {\n        \"name\": \"Omnis dolore ipsum. Dignissimos et minima. Pariatur quos occaecati.\",\n        \"provider_name\": \"Rich Leisha Kuhlman\"\n      }\n    },\n    {\n      \"id\": \"244\",\n      \"type\": \"answer\",\n      \"attributes\": {\n        \"name\": \"Aut similique repellendus. Recusandae et consequatur. Exercitationem quas maxime.\",\n        \"provider_name\": \"Mohammed Vanetta Blick\"\n      }\n    },\n    {\n      \"id\": \"245\",\n      \"type\": \"answer\",\n      \"attributes\": {\n        \"name\": \"Quibusdam distinctio quod. Quas occaecati est. Et inventore vel.\",\n        \"provider_name\": \"Elisha Claribel Hermann\"\n      }\n    },\n    {\n      \"id\": \"246\",\n      \"type\": \"answer\",\n      \"attributes\": {\n        \"name\": \"Itaque quisquam fugit. Pariatur voluptatibus qui. Quia minima harum.\",\n        \"provider_name\": \"Dominic Ira Mante IV\"\n      }\n    },\n    {\n      \"id\": \"247\",\n      \"type\": \"answer\",\n      \"attributes\": {\n        \"name\": \"Eius delectus sunt. Qui natus est. Tenetur dignissimos aliquid.\",\n        \"provider_name\": \"Mr. Mitchell Isadora Moen\"\n      }\n    },\n    {\n      \"id\": \"248\",\n      \"type\": \"answer\",\n      \"attributes\": {\n        \"name\": \"Consectetur est fugiat. Quos ad similique. Adipisci quia blanditiis.\",\n        \"provider_name\": \"Mrs. Makeda Lezlie Lueilwitz\"\n      }\n    },\n    {\n      \"id\": \"249\",\n      \"type\": \"answer\",\n      \"attributes\": {\n        \"name\": \"Ipsa alias ex. Id aut natus. Quis et aut.\",\n        \"provider_name\": \"Miss Isaias Carrol Murray\"\n      }\n    },\n    {\n      \"id\": \"250\",\n      \"type\": \"answer\",\n      \"attributes\": {\n        \"name\": \"Expedita aliquid qui. Dolores quia neque. Ab quas qui.\",\n        \"provider_name\": \"George Steven Kris\"\n      }\n    },\n    {\n      \"id\": \"251\",\n      \"type\": \"answer\",\n      \"attributes\": {\n        \"name\": \"Ut rerum nobis. Sit provident non. Impedit et facilis.\",\n        \"provider_name\": \"Vernice Cassidy Rice\"\n      }\n    },\n    {\n      \"id\": \"252\",\n      \"type\": \"answer\",\n      \"attributes\": {\n        \"name\": \"Laborum libero qui. Et et vitae. Autem iusto esse.\",\n        \"provider_name\": \"Mr. Dwain Meri Franecki\"\n      }\n    },\n    {\n      \"id\": \"253\",\n      \"type\": \"answer\",\n      \"attributes\": {\n        \"name\": \"Laboriosam odio eveniet. Aut officiis magni. Sequi ea qui.\",\n        \"provider_name\": \"Maryetta Doretha Wehner\"\n      }\n    },\n    {\n      \"id\": \"254\",\n      \"type\": \"answer\",\n      \"attributes\": {\n        \"name\": \"Delectus maiores tempora. Corporis magni et. Voluptas est dolores.\",\n        \"provider_name\": \"Teddy Maple D'Amore\"\n      }\n    },\n    {\n      \"id\": \"255\",\n      \"type\": \"answer\",\n      \"attributes\": {\n        \"name\": \"Corporis et quaerat. Fuga ea impedit. Natus rerum maiores.\",\n        \"provider_name\": \"Devora Else Russel\"\n      }\n    },\n    {\n      \"id\": \"256\",\n      \"type\": \"answer\",\n      \"attributes\": {\n        \"name\": \"Qui illum qui. Veritatis asperiores ut. Ut adipisci molestiae.\",\n        \"provider_name\": \"Danuta Frank Brekke\"\n      }\n    },\n    {\n      \"id\": \"257\",\n      \"type\": \"answer\",\n      \"attributes\": {\n        \"name\": \"In ut quasi. Est culpa ut. Sunt omnis voluptas.\",\n        \"provider_name\": \"Harmony Lasonya Bashirian\"\n      }\n    },\n    {\n      \"id\": \"258\",\n      \"type\": \"answer\",\n      \"attributes\": {\n        \"name\": \"Iure aut animi. Perspiciatis sint non. Animi explicabo quasi.\",\n        \"provider_name\": \"Terrie Arnulfo Marks\"\n      }\n    },\n    {\n      \"id\": \"259\",\n      \"type\": \"answer\",\n      \"attributes\": {\n        \"name\": \"Qui reprehenderit quibusdam. Odio voluptas sed. Quia et amet.\",\n        \"provider_name\": \"Marshall Maricruz Swift\"\n      }\n    },\n    {\n      \"id\": \"260\",\n      \"type\": \"answer\",\n      \"attributes\": {\n        \"name\": \"Aut vitae ducimus. Repudiandae voluptatibus magnam. Aperiam modi et.\",\n        \"provider_name\": \"Dewey Jack Goldner\"\n      }\n    },\n    {\n      \"id\": \"261\",\n      \"type\": \"answer\",\n      \"attributes\": {\n        \"name\": \"Nam consequatur qui. Ratione labore ullam. Facilis facere similique.\",\n        \"provider_name\": \"Miss Marianela Hazel Donnelly\"\n      }\n    },\n    {\n      \"id\": \"262\",\n      \"type\": \"answer\",\n      \"attributes\": {\n        \"name\": \"Architecto et dolore. Facere vel rerum. Dicta aperiam facilis.\",\n        \"provider_name\": \"Porfirio Elnora Bernier MD\"\n      }\n    }\n  ]\n}",
      "response_headers": {
        "Link": "<http://example.org/v1/questions?page=2>; rel=\"last\", <http://example.org/v1/questions?page=2>; rel=\"next\"",
        "Per-Page": "30",
        "Total": "32",
        "Content-Type": "application/json; charset=utf-8",
        "ETag": "W/\"d870889337ee5185dcdd9e100681e3b4\"",
        "Cache-Control": "max-age=0, private, must-revalidate",
        "X-Request-Id": "18543804-ab21-4f7b-ba17-7532f823e8a3",
        "X-Runtime": "0.027470",
        "Vary": "Origin",
        "Content-Length": "10668"
      },
      "response_content_type": "application/json; charset=utf-8",
      "curl": "curl -g \"https://quiet-stream-12356.herokuapp.com/v1/questions\" -X GET \\\n\t-H \"Accept: application/json\" \\\n\t-H \"Content-Type: application/json\" \\\n\t-H \"Authorization: Token token=jM1T9Qpjeg51PQfkMEdzdwtt\" \\\n\t-H \"Host: example.org\" \\\n\t-H \"Cookie: \""
    }
  ]
}