{
  "resource": "V1::Questions",
  "resource_explanation": null,
  "http_method": "GET",
  "route": "/v1/questions",
  "description": "index",
  "explanation": null,
  "parameters": [

  ],
  "response_fields": [

  ],
  "requests": [
    {
      "request_method": "GET",
      "request_path": "/v1/questions",
      "request_body": null,
      "request_headers": {
        "Accept": "application/json",
        "Content-Type": "application/json",
        "Authorization": "Token token=P2ryKLsyAB4o899KTPlTeAtt",
        "Host": "example.org",
        "Cookie": ""
      },
      "request_query_parameters": {
      },
      "request_content_type": "application/json",
      "response_status": 200,
      "response_status_text": "OK",
      "response_body": "{\n  \"data\": [\n    {\n      \"id\": \"2\",\n      \"type\": \"question\",\n      \"attributes\": {\n        \"id\": 2,\n        \"name\": \"Quia rerum dolore molestias?\",\n        \"asker_name\": \"Woodrow Shameka Ledner Sr.\"\n      },\n      \"relationships\": {\n        \"answers\": {\n          \"data\": [\n            {\n              \"id\": \"2\",\n              \"type\": \"answer\"\n            }\n          ]\n        }\n      }\n    },\n    {\n      \"id\": \"3\",\n      \"type\": \"question\",\n      \"attributes\": {\n        \"id\": 3,\n        \"name\": \"Omnis rem assumenda unde?\",\n        \"asker_name\": \"Ms. Inge Lincoln Hettinger\"\n      },\n      \"relationships\": {\n        \"answers\": {\n          \"data\": [\n            {\n              \"id\": \"3\",\n              \"type\": \"answer\"\n            }\n          ]\n        }\n      }\n    },\n    {\n      \"id\": \"4\",\n      \"type\": \"question\",\n      \"attributes\": {\n        \"id\": 4,\n        \"name\": \"Et omnis in tempora?\",\n        \"asker_name\": \"Mari Jermaine Bednar Jr.\"\n      },\n      \"relationships\": {\n        \"answers\": {\n          \"data\": [\n            {\n              \"id\": \"4\",\n              \"type\": \"answer\"\n            }\n          ]\n        }\n      }\n    },\n    {\n      \"id\": \"5\",\n      \"type\": \"question\",\n      \"attributes\": {\n        \"id\": 5,\n        \"name\": \"Perspiciatis incidunt animi ullam?\",\n        \"asker_name\": \"Ettie Latoya Ruecker\"\n      },\n      \"relationships\": {\n        \"answers\": {\n          \"data\": [\n            {\n              \"id\": \"5\",\n              \"type\": \"answer\"\n            }\n          ]\n        }\n      }\n    },\n    {\n      \"id\": \"6\",\n      \"type\": \"question\",\n      \"attributes\": {\n        \"id\": 6,\n        \"name\": \"Distinctio similique corrupti velit?\",\n        \"asker_name\": \"Ms. Hunter Vivienne Hettinger\"\n      },\n      \"relationships\": {\n        \"answers\": {\n          \"data\": [\n            {\n              \"id\": \"6\",\n              \"type\": \"answer\"\n            }\n          ]\n        }\n      }\n    },\n    {\n      \"id\": \"7\",\n      \"type\": \"question\",\n      \"attributes\": {\n        \"id\": 7,\n        \"name\": \"Blanditiis expedita consequatur nostrum?\",\n        \"asker_name\": \"Darrel Lydia Crist\"\n      },\n      \"relationships\": {\n        \"answers\": {\n          \"data\": [\n            {\n              \"id\": \"7\",\n              \"type\": \"answer\"\n            }\n          ]\n        }\n      }\n    },\n    {\n      \"id\": \"8\",\n      \"type\": \"question\",\n      \"attributes\": {\n        \"id\": 8,\n        \"name\": \"Et id voluptatibus fugiat?\",\n        \"asker_name\": \"Ms. Carri Shakira Crona\"\n      },\n      \"relationships\": {\n        \"answers\": {\n          \"data\": [\n            {\n              \"id\": \"8\",\n              \"type\": \"answer\"\n            }\n          ]\n        }\n      }\n    },\n    {\n      \"id\": \"9\",\n      \"type\": \"question\",\n      \"attributes\": {\n        \"id\": 9,\n        \"name\": \"Et qui voluptas qui?\",\n        \"asker_name\": \"Rena Patricia Rice\"\n      },\n      \"relationships\": {\n        \"answers\": {\n          \"data\": [\n            {\n              \"id\": \"9\",\n              \"type\": \"answer\"\n            }\n          ]\n        }\n      }\n    },\n    {\n      \"id\": \"10\",\n      \"type\": \"question\",\n      \"attributes\": {\n        \"id\": 10,\n        \"name\": \"Voluptates est quis natus?\",\n        \"asker_name\": \"Trent Linda Kuhlman\"\n      },\n      \"relationships\": {\n        \"answers\": {\n          \"data\": [\n            {\n              \"id\": \"10\",\n              \"type\": \"answer\"\n            }\n          ]\n        }\n      }\n    },\n    {\n      \"id\": \"11\",\n      \"type\": \"question\",\n      \"attributes\": {\n        \"id\": 11,\n        \"name\": \"Qui voluptas sint harum?\",\n        \"asker_name\": \"Diego Vicki Ryan\"\n      },\n      \"relationships\": {\n        \"answers\": {\n          \"data\": [\n            {\n              \"id\": \"11\",\n              \"type\": \"answer\"\n            }\n          ]\n        }\n      }\n    },\n    {\n      \"id\": \"12\",\n      \"type\": \"question\",\n      \"attributes\": {\n        \"id\": 12,\n        \"name\": \"Vitae ad est quaerat?\",\n        \"asker_name\": \"Donette Eliz Schowalter Sr.\"\n      },\n      \"relationships\": {\n        \"answers\": {\n          \"data\": [\n            {\n              \"id\": \"12\",\n              \"type\": \"answer\"\n            }\n          ]\n        }\n      }\n    },\n    {\n      \"id\": \"13\",\n      \"type\": \"question\",\n      \"attributes\": {\n        \"id\": 13,\n        \"name\": \"Enim eius in sunt?\",\n        \"asker_name\": \"Mozell Darnell Bailey\"\n      },\n      \"relationships\": {\n        \"answers\": {\n          \"data\": [\n            {\n              \"id\": \"13\",\n              \"type\": \"answer\"\n            }\n          ]\n        }\n      }\n    },\n    {\n      \"id\": \"14\",\n      \"type\": \"question\",\n      \"attributes\": {\n        \"id\": 14,\n        \"name\": \"Ea laboriosam ullam rerum?\",\n        \"asker_name\": \"Jackson Maire Padberg\"\n      },\n      \"relationships\": {\n        \"answers\": {\n          \"data\": [\n            {\n              \"id\": \"14\",\n              \"type\": \"answer\"\n            }\n          ]\n        }\n      }\n    },\n    {\n      \"id\": \"15\",\n      \"type\": \"question\",\n      \"attributes\": {\n        \"id\": 15,\n        \"name\": \"Minus et repellat adipisci?\",\n        \"asker_name\": \"Miss Karan Tiffanie Hickle\"\n      },\n      \"relationships\": {\n        \"answers\": {\n          \"data\": [\n            {\n              \"id\": \"15\",\n              \"type\": \"answer\"\n            }\n          ]\n        }\n      }\n    },\n    {\n      \"id\": \"16\",\n      \"type\": \"question\",\n      \"attributes\": {\n        \"id\": 16,\n        \"name\": \"Et distinctio amet officiis?\",\n        \"asker_name\": \"Elmo Freddie Hilpert\"\n      },\n      \"relationships\": {\n        \"answers\": {\n          \"data\": [\n            {\n              \"id\": \"16\",\n              \"type\": \"answer\"\n            }\n          ]\n        }\n      }\n    },\n    {\n      \"id\": \"17\",\n      \"type\": \"question\",\n      \"attributes\": {\n        \"id\": 17,\n        \"name\": \"Accusamus aliquid sed odio?\",\n        \"asker_name\": \"Roberta Fredrick Powlowski\"\n      },\n      \"relationships\": {\n        \"answers\": {\n          \"data\": [\n            {\n              \"id\": \"17\",\n              \"type\": \"answer\"\n            }\n          ]\n        }\n      }\n    },\n    {\n      \"id\": \"18\",\n      \"type\": \"question\",\n      \"attributes\": {\n        \"id\": 18,\n        \"name\": \"Et voluptas voluptas suscipit?\",\n        \"asker_name\": \"Lila Clemmie Walsh\"\n      },\n      \"relationships\": {\n        \"answers\": {\n          \"data\": [\n            {\n              \"id\": \"18\",\n              \"type\": \"answer\"\n            }\n          ]\n        }\n      }\n    },\n    {\n      \"id\": \"19\",\n      \"type\": \"question\",\n      \"attributes\": {\n        \"id\": 19,\n        \"name\": \"Labore ut maxime alias?\",\n        \"asker_name\": \"Leroy Laquita Adams\"\n      },\n      \"relationships\": {\n        \"answers\": {\n          \"data\": [\n            {\n              \"id\": \"19\",\n              \"type\": \"answer\"\n            }\n          ]\n        }\n      }\n    },\n    {\n      \"id\": \"20\",\n      \"type\": \"question\",\n      \"attributes\": {\n        \"id\": 20,\n        \"name\": \"Dolorem atque ea est?\",\n        \"asker_name\": \"Jaclyn Yon Boehm\"\n      },\n      \"relationships\": {\n        \"answers\": {\n          \"data\": [\n            {\n              \"id\": \"20\",\n              \"type\": \"answer\"\n            }\n          ]\n        }\n      }\n    },\n    {\n      \"id\": \"21\",\n      \"type\": \"question\",\n      \"attributes\": {\n        \"id\": 21,\n        \"name\": \"Quo facere et molestias?\",\n        \"asker_name\": \"Trista Gisele Bruen MD\"\n      },\n      \"relationships\": {\n        \"answers\": {\n          \"data\": [\n            {\n              \"id\": \"21\",\n              \"type\": \"answer\"\n            }\n          ]\n        }\n      }\n    },\n    {\n      \"id\": \"22\",\n      \"type\": \"question\",\n      \"attributes\": {\n        \"id\": 22,\n        \"name\": \"Veniam autem quisquam ipsum?\",\n        \"asker_name\": \"Henry Darren Mertz\"\n      },\n      \"relationships\": {\n        \"answers\": {\n          \"data\": [\n            {\n              \"id\": \"22\",\n              \"type\": \"answer\"\n            }\n          ]\n        }\n      }\n    },\n    {\n      \"id\": \"23\",\n      \"type\": \"question\",\n      \"attributes\": {\n        \"id\": 23,\n        \"name\": \"Repellendus excepturi explicabo ipsum?\",\n        \"asker_name\": \"Freddie Waneta Wehner\"\n      },\n      \"relationships\": {\n        \"answers\": {\n          \"data\": [\n            {\n              \"id\": \"23\",\n              \"type\": \"answer\"\n            }\n          ]\n        }\n      }\n    },\n    {\n      \"id\": \"24\",\n      \"type\": \"question\",\n      \"attributes\": {\n        \"id\": 24,\n        \"name\": \"Occaecati voluptatum esse eligendi?\",\n        \"asker_name\": \"Thu Flor Bechtelar\"\n      },\n      \"relationships\": {\n        \"answers\": {\n          \"data\": [\n            {\n              \"id\": \"24\",\n              \"type\": \"answer\"\n            }\n          ]\n        }\n      }\n    },\n    {\n      \"id\": \"25\",\n      \"type\": \"question\",\n      \"attributes\": {\n        \"id\": 25,\n        \"name\": \"Sint ducimus quia alias?\",\n        \"asker_name\": \"Shelby Francisco Bogisich\"\n      },\n      \"relationships\": {\n        \"answers\": {\n          \"data\": [\n            {\n              \"id\": \"25\",\n              \"type\": \"answer\"\n            }\n          ]\n        }\n      }\n    },\n    {\n      \"id\": \"26\",\n      \"type\": \"question\",\n      \"attributes\": {\n        \"id\": 26,\n        \"name\": \"Dolor et rerum autem?\",\n        \"asker_name\": \"Dong Roland Marvin PhD\"\n      },\n      \"relationships\": {\n        \"answers\": {\n          \"data\": [\n            {\n              \"id\": \"26\",\n              \"type\": \"answer\"\n            }\n          ]\n        }\n      }\n    },\n    {\n      \"id\": \"27\",\n      \"type\": \"question\",\n      \"attributes\": {\n        \"id\": 27,\n        \"name\": \"Expedita eaque perferendis nostrum?\",\n        \"asker_name\": \"Mr. Deanna Tomiko Kuhn\"\n      },\n      \"relationships\": {\n        \"answers\": {\n          \"data\": [\n            {\n              \"id\": \"27\",\n              \"type\": \"answer\"\n            }\n          ]\n        }\n      }\n    },\n    {\n      \"id\": \"28\",\n      \"type\": \"question\",\n      \"attributes\": {\n        \"id\": 28,\n        \"name\": \"Est sed eos et?\",\n        \"asker_name\": \"Miss Kerry Chelsey Gutkowski\"\n      },\n      \"relationships\": {\n        \"answers\": {\n          \"data\": [\n            {\n              \"id\": \"28\",\n              \"type\": \"answer\"\n            }\n          ]\n        }\n      }\n    },\n    {\n      \"id\": \"29\",\n      \"type\": \"question\",\n      \"attributes\": {\n        \"id\": 29,\n        \"name\": \"Eaque aspernatur est exercitationem?\",\n        \"asker_name\": \"Ms. Caleb Casimira Pagac\"\n      },\n      \"relationships\": {\n        \"answers\": {\n          \"data\": [\n            {\n              \"id\": \"29\",\n              \"type\": \"answer\"\n            }\n          ]\n        }\n      }\n    },\n    {\n      \"id\": \"30\",\n      \"type\": \"question\",\n      \"attributes\": {\n        \"id\": 30,\n        \"name\": \"Qui et ratione veniam?\",\n        \"asker_name\": \"Carl Nery Medhurst\"\n      },\n      \"relationships\": {\n        \"answers\": {\n          \"data\": [\n            {\n              \"id\": \"30\",\n              \"type\": \"answer\"\n            }\n          ]\n        }\n      }\n    },\n    {\n      \"id\": \"31\",\n      \"type\": \"question\",\n      \"attributes\": {\n        \"id\": 31,\n        \"name\": \"Voluptas commodi perferendis consequatur?\",\n        \"asker_name\": \"Miss Virgilio Dwana Weber\"\n      },\n      \"relationships\": {\n        \"answers\": {\n          \"data\": [\n            {\n              \"id\": \"31\",\n              \"type\": \"answer\"\n            }\n          ]\n        }\n      }\n    }\n  ],\n  \"included\": [\n    {\n      \"id\": \"2\",\n      \"type\": \"answer\",\n      \"attributes\": {\n        \"name\": \"Architecto aperiam blanditiis. Atque sequi dolore. In natus amet.\",\n        \"provider_name\": \"Cortney Adrianna Welch\"\n      }\n    },\n    {\n      \"id\": \"3\",\n      \"type\": \"answer\",\n      \"attributes\": {\n        \"name\": \"Nihil incidunt enim. Iusto nisi repudiandae. Corporis nam ratione.\",\n        \"provider_name\": \"Dann Stacia Daniel\"\n      }\n    },\n    {\n      \"id\": \"4\",\n      \"type\": \"answer\",\n      \"attributes\": {\n        \"name\": \"Nemo velit necessitatibus. Iure expedita natus. Quaerat nesciunt nostrum.\",\n        \"provider_name\": \"Deeanna Ramon Vandervort\"\n      }\n    },\n    {\n      \"id\": \"5\",\n      \"type\": \"answer\",\n      \"attributes\": {\n        \"name\": \"Ab sunt dolore. Est assumenda eos. Quibusdam quis atque.\",\n        \"provider_name\": \"Mrs. Lamar Nelson Willms\"\n      }\n    },\n    {\n      \"id\": \"6\",\n      \"type\": \"answer\",\n      \"attributes\": {\n        \"name\": \"In nostrum suscipit. Laborum autem earum. Ut nostrum corrupti.\",\n        \"provider_name\": \"Jeannine Aurea Lubowitz I\"\n      }\n    },\n    {\n      \"id\": \"7\",\n      \"type\": \"answer\",\n      \"attributes\": {\n        \"name\": \"Sit saepe nulla. Aut iusto neque. Eveniet provident eos.\",\n        \"provider_name\": \"Miss Alberto Zachary Ferry\"\n      }\n    },\n    {\n      \"id\": \"8\",\n      \"type\": \"answer\",\n      \"attributes\": {\n        \"name\": \"Aut exercitationem est. Et inventore dolores. Ut id perferendis.\",\n        \"provider_name\": \"Jennefer Franklin McCullough\"\n      }\n    },\n    {\n      \"id\": \"9\",\n      \"type\": \"answer\",\n      \"attributes\": {\n        \"name\": \"Ducimus natus sit. Quae architecto inventore. Facere dicta ut.\",\n        \"provider_name\": \"Avery Trinidad Schinner\"\n      }\n    },\n    {\n      \"id\": \"10\",\n      \"type\": \"answer\",\n      \"attributes\": {\n        \"name\": \"Modi ab eum. Nihil nobis occaecati. Alias quae nemo.\",\n        \"provider_name\": \"Apolonia Evan Mayert\"\n      }\n    },\n    {\n      \"id\": \"11\",\n      \"type\": \"answer\",\n      \"attributes\": {\n        \"name\": \"Autem tempore dicta. Beatae animi est. Qui enim dolorum.\",\n        \"provider_name\": \"Henry Christopher Fay\"\n      }\n    },\n    {\n      \"id\": \"12\",\n      \"type\": \"answer\",\n      \"attributes\": {\n        \"name\": \"Asperiores repudiandae itaque. Ut totam quidem. Excepturi qui iusto.\",\n        \"provider_name\": \"Margrett Shirly Swaniawski\"\n      }\n    },\n    {\n      \"id\": \"13\",\n      \"type\": \"answer\",\n      \"attributes\": {\n        \"name\": \"Aliquam aut facere. Eos libero voluptates. Voluptas nam dolore.\",\n        \"provider_name\": \"Will Karan Rippin\"\n      }\n    },\n    {\n      \"id\": \"14\",\n      \"type\": \"answer\",\n      \"attributes\": {\n        \"name\": \"Nostrum animi consectetur. Architecto excepturi qui. Et dolor quia.\",\n        \"provider_name\": \"Solange Flavia Spencer\"\n      }\n    },\n    {\n      \"id\": \"15\",\n      \"type\": \"answer\",\n      \"attributes\": {\n        \"name\": \"Dignissimos iste facere. Similique quae voluptatum. Accusantium quae eligendi.\",\n        \"provider_name\": \"Therese Arlie Adams\"\n      }\n    },\n    {\n      \"id\": \"16\",\n      \"type\": \"answer\",\n      \"attributes\": {\n        \"name\": \"Reprehenderit similique quisquam. Nisi dicta tempore. Et minima sed.\",\n        \"provider_name\": \"Dillon Drew Mann\"\n      }\n    },\n    {\n      \"id\": \"17\",\n      \"type\": \"answer\",\n      \"attributes\": {\n        \"name\": \"Aut voluptatem temporibus. Quibusdam quaerat possimus. Debitis est doloremque.\",\n        \"provider_name\": \"Erwin Debrah O'Keefe\"\n      }\n    },\n    {\n      \"id\": \"18\",\n      \"type\": \"answer\",\n      \"attributes\": {\n        \"name\": \"Numquam rerum repellendus. Ipsa aut voluptas. Sit ea sapiente.\",\n        \"provider_name\": \"Meggan Gino Abshire\"\n      }\n    },\n    {\n      \"id\": \"19\",\n      \"type\": \"answer\",\n      \"attributes\": {\n        \"name\": \"Amet veniam corrupti. Sed doloribus esse. Enim ducimus illum.\",\n        \"provider_name\": \"Orville Hermelinda Mills\"\n      }\n    },\n    {\n      \"id\": \"20\",\n      \"type\": \"answer\",\n      \"attributes\": {\n        \"name\": \"Ullam laboriosam quisquam. Itaque et consequatur. Ab quia autem.\",\n        \"provider_name\": \"Miss Johnson Cesar Harvey\"\n      }\n    },\n    {\n      \"id\": \"21\",\n      \"type\": \"answer\",\n      \"attributes\": {\n        \"name\": \"Totam est autem. Fugiat explicabo quod. Ut ipsam consequatur.\",\n        \"provider_name\": \"Miranda Eugenio Zulauf\"\n      }\n    },\n    {\n      \"id\": \"22\",\n      \"type\": \"answer\",\n      \"attributes\": {\n        \"name\": \"Sunt quia adipisci. Debitis sit nulla. Et ea dolores.\",\n        \"provider_name\": \"Mrs. Larry Bette Weimann\"\n      }\n    },\n    {\n      \"id\": \"23\",\n      \"type\": \"answer\",\n      \"attributes\": {\n        \"name\": \"Et voluptatem sit. Iure repudiandae aperiam. Cum eos qui.\",\n        \"provider_name\": \"Meredith Shalon Dibbert\"\n      }\n    },\n    {\n      \"id\": \"24\",\n      \"type\": \"answer\",\n      \"attributes\": {\n        \"name\": \"In sunt aperiam. Repellendus facilis ea. Quis corrupti tenetur.\",\n        \"provider_name\": \"Cleopatra Walker Rolfson\"\n      }\n    },\n    {\n      \"id\": \"25\",\n      \"type\": \"answer\",\n      \"attributes\": {\n        \"name\": \"At sunt et. Sed omnis dolorem. Vitae sed et.\",\n        \"provider_name\": \"Jerrold Macie O'Kon\"\n      }\n    },\n    {\n      \"id\": \"26\",\n      \"type\": \"answer\",\n      \"attributes\": {\n        \"name\": \"Omnis ut possimus. Voluptatibus eligendi necessitatibus. Aut vitae aut.\",\n        \"provider_name\": \"Al Von Yost\"\n      }\n    },\n    {\n      \"id\": \"27\",\n      \"type\": \"answer\",\n      \"attributes\": {\n        \"name\": \"Pariatur odio corrupti. Ullam corporis culpa. Soluta non fuga.\",\n        \"provider_name\": \"Gale Elinor McCullough\"\n      }\n    },\n    {\n      \"id\": \"28\",\n      \"type\": \"answer\",\n      \"attributes\": {\n        \"name\": \"Dolores repellat odio. Similique aut dolor. Exercitationem ut ullam.\",\n        \"provider_name\": \"Hortense Mei Spencer\"\n      }\n    },\n    {\n      \"id\": \"29\",\n      \"type\": \"answer\",\n      \"attributes\": {\n        \"name\": \"Beatae architecto ex. Et eos quaerat. Dicta eum ut.\",\n        \"provider_name\": \"Francesco Kimberlee Doyle\"\n      }\n    },\n    {\n      \"id\": \"30\",\n      \"type\": \"answer\",\n      \"attributes\": {\n        \"name\": \"Ut molestias ullam. Beatae at quidem. Quia rem qui.\",\n        \"provider_name\": \"Jose Louie Abbott\"\n      }\n    },\n    {\n      \"id\": \"31\",\n      \"type\": \"answer\",\n      \"attributes\": {\n        \"name\": \"Quis earum eveniet. Rerum itaque et. Ea voluptatem quidem.\",\n        \"provider_name\": \"Columbus Kirsten Hodkiewicz\"\n      }\n    }\n  ]\n}",
      "response_headers": {
        "Link": "<http://example.org/v1/questions?page=2>; rel=\"last\", <http://example.org/v1/questions?page=2>; rel=\"next\"",
        "Per-Page": "30",
        "Total": "32",
        "Content-Type": "application/json; charset=utf-8",
        "ETag": "W/\"8da666eb91f24b28870ed440bc40c315\"",
        "Cache-Control": "max-age=0, private, must-revalidate",
        "X-Request-Id": "65b69f72-ce1f-47b4-84be-6f81dfac3857",
        "X-Runtime": "0.050246",
        "Vary": "Origin",
        "Content-Length": "10519"
      },
      "response_content_type": "application/json; charset=utf-8",
      "curl": "curl -g \"https://quiet-stream-12356.herokuapp.com/v1/questions\" -X GET \\\n\t-H \"Accept: application/json\" \\\n\t-H \"Content-Type: application/json\" \\\n\t-H \"Authorization: Token token=P2ryKLsyAB4o899KTPlTeAtt\" \\\n\t-H \"Host: example.org\" \\\n\t-H \"Cookie: \""
    }
  ]
}